…
       56%        57%        58%        59%        60%        61%        62% 
 0.2392000  0.2488320  0.2590360  0.2690820  0.2806440  0.2924600  0.3039920 
       63%        64%        65%        66%        67%        68%        69% 
 0.3166900  0.3291560  0.3432000  0.3574080  0.3706200  0.3873600  0.4025920 
       70%        71%        72%        73%        74%        75%        76% 
 0.4198660  0.4384954  0.4572540  0.4780600  0.4974840  0.5216400  0.5464800 
       77%        78%        79%        80%        81%        82%        83% 
 0.5717400  0.5982720  0.6281080  0.6601240  0.6957720  0.7351680  0.7795800 
       84%        85%        86%        87%        88%        89%        90% 
 0.8272440  0.8834040  0.9428200  1.0107720  1.0927280  1.1888762  1.3016608 
       91%        92%        93%        94%        95%        96%        97% 
 1.4649920  1.7002138  2.0277740  2.4369496  2.8989760  3.4742112  4.0860078 
       98%        99%       100% 
 4.9120320  6.1496195 22.3530560 
# A tibble: 35 × 5
   Sample                               median   q95  drop drop_percent
   <chr>                                 <dbl> <dbl> <int>        <dbl>
 1 LIB210527RC_AB_1A                    0.159   2.49   224         4.50
 2 LIB210527RC_AB_1B                    0.129   2.45   200         4.34
 3 VC_snRNAseq-7_AccBasalAP1AP2_-7      0.140   1.73   152         3.47
 4 VC_snRNAseq-7_BasalDorsalAP1_-3A     0.0947  1.81   165         3.83
 5 VC_snRNAseq-7_BasalDorsalAP1_-3B     0.119   1.51   126         3.18
 6 VC_snRNAseq-7_BasalVentralAP1_-4     0.163   1.89    81         3.67
 7 VC_snRNAseq-7_BasalVentralAP2_-5     0.201   2.80   204         5.09
 8 VC_snRNAseq-7_LateralDorsalAP1AP2_-8 0.114   1.45   133         2.80
 9 VC_snRNAseq-7_LateralVentralAP1_-1   0.179   1.63    74         2.40
10 VC_snRNAseq-7_LateralVentralAP2_-2   0.113   1.48   142         3.01
# ℹ 25 more rows
…
